*** Darwin 14x9 ***
Turn = 0.
  012345678
0 .trff.h..
1 ...r..t.f
2 ..r.t..rh
3 .f....f.h
4 .h..ht..t
5 ...f.....
6 h........
7 ...rf..rf
8 ff...f.hf
9 ........t
0 .....ff..
1 ..h..fh..
2 f....ht.h
3 .r.t.t...

Turn = 2.
  012345678
0 .t.ff.h..
1 .....rt.f
2 ..rrhr..h
3 .f....f.h
4 h....t.rt
5 ...f...r.
6 .......h.
7 h...f...f
8 ff...f..t
9 ...r....t
0 .....ff..
1 hr...fh..
2 f..h..t..
3 ...t.t..h

Turn = 4.
  012345678
0 .t.fr....
1 ....rrrrr
2 ....r..rr
3 .f....f.t
4 h.r..tr.t
5 ...f..rh.
6 .........
7 h...f...t
8 ff...f..t
9 .r......t
0 .....ff..
1 h..r.ft..
2 fh....t..
3 ...t.t..h

Turn = 6.
  012345678
0 .t.fr.r..
1 .....r.rr
2 .....rrrr
3 .f...r.r.
4 h....rrht
5 ...fr....
6 ..r......
7 h...f...t
8 frr..f..t
9 ........t
0 .....ff..
1 h....tt..
2 fh.r..t..
3 ...r.t..h

Turn = 8.
  012345678
0 .t.f.rrrr
1 ...r...r.
2 .......r.
3 .f.r...rr
4 h..r..rrr
5 ...rr....
6 .r....r..
7 h...f...t
8 f.r.rf..t
9 ........t
0 .....ff..
1 h....tt..
2 fhr...t..
3 ....tt..h

Turn = 10.
  012345678
0 .t.f.rr.r
1 .r....r.r
2 .....r...
3 .rr.r..rr
4 hr...r...
5 .r.......
6 ......r.r
7 h..rf.r.t
8 f....r.tt
9 ........t
0 ..r..tt..
1 h....tt..
2 rrr...t..
3 ....tt..h

Turn = 12.
  012345678
0 .t.fr...r
1 r......r.
2 ...r.r...
3 .r.r..r..
4 rrrr.....
5 ...r...rr
6 .....r..r
7 h...rr.r.
8 f.....rrt
9 ...r....t
0 .....tt..
1 r.r..tt..
2 r..r..t..
3 .r..tt..h

Turn = 14.
  012345678
0 .t.rr....
1 .....r..r
2 rr.......
3 rr.......
4 .r...r...
5 .....rr.r
6 rrrrrr...
7 h....rrrr
8 f......rr
9 ........r
0 r....tt..
1 r..r.tt..
2 .r..t.t..
3 ..r.tt..h

Turn = 16.
  012345678
0 .t...r...
1 .r.......
2 r..rr....
3 r.......r
4 ....rrr..
5 rr.......
6 rr..r.r.r
7 r..r.rrr.
8 rrr....rr
9 r.....r..
0 .....tt..
1 .....tt..
2 r.rtt.t..
3 ...rtt..h

Turn = 18.
  012345678
0 .t....r..
1 .t.......
2 ..r..r...
3 ....r....
4 r..r.r.r.
5 r.r.....r
6 rrr....rr
7 .rrrrr...
8 rr.......
9 .....t...
0 .rr..ttrr
1 ..r..tt..
2 ...tt.t..
3 r..ttt..h

Turn = 20.
  012345678
0 .t...r..r
1 .t.......
2 ....r....
3 r.....r..
4 ..r....r.
5 ..r....rr
6 rrrrr.r..
7 rrrr.....
8 ...r.r.r.
9 .....t...
0 .r...tt..
1 ....ttt..
2 .r.tt.ttr
3 r..ttt..h

Turn = 22.
  012345678
0 .t..r....
1 rt......r
2 ......r..
3 ........r
4 ....r...r
5 rr..rr...
6 r.rrr....
7 rrrr....r
8 ....rr...
9 ......t..
0 r....ttr.
1 ....ttt..
2 ...tt.ttt
3 rr.ttt..t

Turn = 24.
  012345678
0 rtr......
1 .t.......
2 .......rr
3 .r......r
4 r.....r.r
5 r.rr.....
6 r..rr....
7 .rr.r....
8 r......r.
9 r.r...t.r
0 .....tt..
1 ....tttr.
2 rr.tt.trt
3 ...ttt..t

Turn = 26.
  012345678
0 rt.....r.
1 .rr......
2 rr....r..
3 r........
4 .......rr
5 rrr......
6 ..r.....r
7 r........
8 r..rr...r
9 rr....t..
0 rr...tt..
1 ..r.ttttr
2 ...tt.ttt
3 ...ttt..t

Turn = 28.
  012345678
0 rr.r..r..
1 rr.......
2 r...r..r.
3 ..r......
4 ..r......
5 .r.......
6 rr......r
7 r.......r
8 r.......r
9 r.r...t..
0 rr.rrtt..
1 ....ttttt
2 ...tt.ttt
3 ..rttt..t

Turn = 30.
  012345678
0 rr..rr.r.
1 .r.......
2 r.rr.....
3 ...r.....
4 rr.......
5 ...r.....
6 r.......r
7 r........
8 r.......r
9 r.r.r.t..
0 ....rtt.r
1 ...rtrtrr
2 .r.rt.rrt
3 ..rrtt..t

Turn = 32.
  012345678
0 r..rr.r..
1 ..rr.....
2 rrr......
3 r....r...
4 r........
5 r....r...
6 .........
7 .r.......
8 .r....r.r
9 ..r.rr..r
0 ....rrt.r
1 ...rrrrrr
2 ...rr.rrt
3 .rrttt..t

Turn = 34.
  012345678
0 .rr.r....
1 rr.r.r...
2 .r..r....
3 r......r.
4 .........
5 r.r....r.
6 ......r..
7 ...r.....
8 ...rr...r
9 ...r...rr
0 ....rrtr.
1 ..rr.rrrr
2 ...trrrrt
3 .r.ttt..t

Turn = 36.
  012345678
0 rrr......
1 .r...r.r.
2 r..r..r..
3 ..r.....r
4 ......r..
5 ....r...r
6 .........
7 r..r.r...
8 .....r.rr
9 ..r.....r
0 ..r..rrrr
1 ...rrrrrr
2 ...rrrrr.
3 ..rr.r.rt

Turn = 38.
  012345678
0 r........
1 ..r....rr
2 rr...rrrr
3 ....r....
4 r........
5 ...r..r..
6 .......r.
7 ......r.r
8 .....r.rr
9 rr....r.r
0 ....rrrr.
1 ...rrrrr.
2 ..rrrrr.r
3 ...r..rrr

Turn = 40.
  012345678
0 r.....rrr
1 .........
2 .....r.r.
3 ..rr..r.r
4 rr.......
5 ......r.r
6 r....rr..
7 .......rr
8 .......r.
9 ...rrr.rr
0 ..r.r.rrr
1 rr.rrrrr.
2 ....rrr..
3 .r....rr.

*** Darwin 11x8 ***
Turn = 0.
  01234567
0 .t...f.r
1 ..f.....
2 ........
3 ..t.t..f
4 h.......
5 ..hh.tt.
6 t..t..r.
7 f.......
8 hf..h.f.
9 th.....r
0 ....rrr.

Turn = 5.
  01234567
0 .t...f..
1 ..f.....
2 .......r
3 ..t.t..r
4 .......r
5 thh..tt.
6 t..t..t.
7 t......r
8 tt...rf.
9 tt..h...
0 ....r...

Turn = 10.
  01234567
0 .t...f..
1 ..f....r
2 ....r...
3 ..t..r.r
4 .....rr.
5 ttt...t.
6 t..t.tt.
7 t.......
8 tt....f.
9 tt......
0 r...h...

Turn = 15.
  01234567
0 .t...r..
1 ..f.....
2 .....r.r
3 ..tt....
4 r..t....
5 ttt...t.
6 t..t.tt.
7 t.......
8 tt....fr
9 tt......
0 t...h...

Turn = 20.
  01234567
0 rt....r.
1 ..f.....
2 ........
3 ..tt....
4 ...t....
5 ttt...tt
6 t..t.rt.
7 t.......
8 tt...rf.
9 tt......
0 t...h..r

*** Darwin 14x6 ***
Turn = 0.
  012345
0 ......
1 tt.ht.
2 .h....
3 rt..f.
4 ..tr.t
5 r...r.
6 ..tt.r
7 r..tf.
8 hf.f..
9 .f.fhr
0 .rff..
1 r.rr..
2 ..f...
3 .f....

Turn = 8.
  012345
0 ....t.
1 ttt.t.
2 tt....
3 .t..f.
4 .r....
5 ..ttt.
6 ..rtt.
7 ..rttr
8 hrrtt.
9 rr.r..
0 ..r...
1 ......
2 ..fr..
3 r...rr

Turn = 16.
  012345
0 ....tr
1 ttt.t.
2 tt....
3 .t..f.
4 ..r...
5 .rrtt.
6 ...tt.
7 rr.tt.
8 .rttt.
9 rrtt..
0 .r....
1 ......
2 .r..r.
3 ..rr..

Turn = 24.
  012345
0 r...t.
1 rt..tt
2 ttr...
3 ttt.f.
4 .rr...
5 rr.tt.
6 ...tt.
7 ...tr.
8 ..rrrr
9 ...rr.
0 ....rr
1 .....r
2 ......
3 r..r..

Turn = 32.
  012345
0 ..r.t.
1 r.tttt
2 .tt...
3 .tt.f.
4 .tr...
5 .rrttt
6 r..tt.
7 r..t.r
8 ......
9 rrr..r
0 rr....
1 .....r
2 r.....
3 .r....

Turn = 40.
  012345
0 r.ttt.
1 ..tttt
2 .tt...
3 .tt.r.
4 .tt.r.
5 rtt.rr
6 .tt.rr
7 r.....
8 r.....
9 rr....
0 .r....
1 r.....
2 ...r.r
3 ..r...

Turn = 48.
  012345
0 ..trt.
1 ..tttt
2 ttttt.
3 .tt...
4 .tt...
5 rrt..r
6 r.....
7 .r.r..
8 .rr...
9 r..r.r
0 ..rr..
1 ..r..r
2 ...r..
3 ....r.

*** Darwin 14x14 ***
Turn = 0.
  01234567890123
0 .rh.rrrrhr..t.
1 ff..ff.r...h..
2 trhh..r.frft..
3 h.ff.rhf...t..
4 .....r.rh.fr.h
5 ...r.rff.r..f.
6 r.f..hh.r...hf
7 .f.r.t...fhth.
8 ..f.r.t..tr...
9 f..t.hh....frr
0 rr.h.h..t.htt.
1 .ttrf.tr..ftff
2 ..fhr.tt.rf.rt
3 t.rf.t...rff.f

Turn = 8.
  01234567890123
0 rr..r...r.rr.r
1 r.rr.r.r..rrr.
2 rr.r..r.f.rr..
3 r..r.rr..r..r.
4 r...rr..rr.rr.
5 r.rrrr.....rr.
6 r...rh...t.r.f
7 ..rr..r..ttt.r
8 ...r..r..tt.t.
9 r.rr.rt....tt.
0 rr.t..trttttt.
1 rrttt.tr..ttrt
2 r.tt..r...ttrt
3 ..rtttt..rrr..

Turn = 16.
  01234567890123
0 r.r.rrrrrr..rr
1 r.rr...rr.r...
2 r.rr.....r.rrr
3 rrr.r....r....
4 rrrr....r...r.
5 r..rrrr.rr..rr
6 r.r.rrrr..rr..
7 r.r....rr..r..
8 r..r.....rrtt.
9 rrr..r.r..rr.r
0 .r..r.t.tttttt
1 ..t.rr.t.ttttt
2 .ttt..tt.ttt.t
3 ..rr....rrrrr.

Turn = 24.
  01234567890123
0 rrrr..rrr...rr
1 rr...rr.rr..rr
2 r..rr.rr..rrr.
3 rrr.....rr....
4 rrr...rrr....r
5 rr.r.rrr......
6 rrr....r.r....
7 rrr..........t
8 r..rrr....t.tt
9 .....r...ttttt
0 rr.rr.r.rttttt
1 .rt..r.ttttttt
2 .rtt.rtt.trt.t
3 ..ttt...rrtt.t

Turn = 32.
  01234567890123
0 .r.rrrr.r....r
1 rr..rrr.......
2 .r.rrrrr.r....
3 rrrrr.....r...
4 rrr.r......rr.
5 rrr...r....rrr
6 r..rr..r.....r
7 rr.r...r.rt..t
8 r..r.....ttttt
9 ........tttttt
0 trr......ttttt
1 .rrr...ttttttt
2 r.rrrrtttttt.t
3 rrrrrr..tttt.t

*** Darwin 3x5 ***
Turn = 0.
  01234
0 trrhr
1 .fhh.
2 h..f.

Turn = 7.
  01234
0 tttt.
1 ttth.
2 ...fr

Turn = 14.
  01234
0 tttt.
1 tttt.
2 ...tt

Turn = 21.
  01234
0 tttt.
1 tttt.
2 ...tt

Turn = 28.
  01234
0 tttt.
1 tttt.
2 ...tt

Turn = 35.
  01234
0 tttt.
1 tttt.
2 ...tt

Turn = 42.
  01234
0 tttt.
1 tttt.
2 ...tt

*** Darwin 12x14 ***
Turn = 0.
  01234567890123
0 hhhr.tt..t..f.
1 .r.frt.......t
2 r..h..ffhf..th
3 htt.ht..htrrh.
4 f.t....ft..t..
5 rfhr.....fh.t.
6 .tf..th...fhrt
7 .hhf......f..r
8 .....r.....f.r
9 ...f...thh....
0 fh...t...r.t..
1 h.r.t..tthf..r

Turn = 5.
  01234567890123
0 rrrr.ttrrt.r.r
1 h.r..t.r.....t
2 ...r..rr.t..tt
3 .r.ttt...tt.t.
4 frrr...tt.t...
5 .rrr.....r.tt.
6 ttr..tt..rtttt
7 tt.f......f..r
8 r..........f.r
9 .r.f...tt..r..
0 f.h..t..t..t..
1 ...tt..tttt...

Turn = 10.
  01234567890123
0 r..rrrrr..rr.t
1 r..rrrrr....tt
2 .r......tt..tt
3 ...ttttr.tt.t.
4 rr..ttr.t.t...
5 rr......t..tt.
6 rt...rrr..tttt
7 ttrf......t..t
8 tt.........f.t
9 ...f...tt.....
0 f....t..tr.t..
1 ..ttt..tttt...

Turn = 15.
  01234567890123
0 r...r....r..rt
1 ..rr.r...t.ttt
2 r..rrrrrtt.ttt
3 rrr..tr.ttt.t.
4 ....ttt...t...
5 .rrr....t..tt.
6 .r.r......tttt
7 rrr.......t..t
8 tt.....t...f.t
9 t..f.t.tt.....
0 t.r..t..tt.t..
1 ..rrr..tttt...

Turn = 20.
  01234567890123
0 rrr......rr.tt
1 rrrr.....t.ttt
2 rr.r...rrr.ttt
3 rr......rrt.t.
4 .r..r.t...t...
5 r....r..t..tt.
6 t...r.....tttt
7 tt.r.r....t..t
8 ttr..r.tr..f.t
9 t...r.rr......
0 t.......tt.t..
1 rrrr..rrrtt...

*** Darwin 7x2 ***
Turn = 0.
  01
0 .f
1 t.
2 fh
3 ff
4 ..
5 r.
6 .r

Turn = 6.
  01
0 .f
1 t.
2 tt
3 tt
4 t.
5 r.
6 ..

Turn = 12.
  01
0 .f
1 t.
2 tt
3 tt
4 t.
5 ..
6 .r

Turn = 18.
  01
0 .f
1 t.
2 tt
3 tt
4 t.
5 ..
6 r.

*** Darwin 6x3 ***
Turn = 0.
  012
0 ...
1 ..h
2 tht
3 .ht
4 .rt
5 .hr

Turn = 1.
  012
0 ...
1 .h.
2 tht
3 .ht
4 .rr
5 .hr

Turn = 2.
  012
0 ...
1 hh.
2 t.t
3 .ht
4 .rr
5 .rr

Turn = 3.
  012
0 .h.
1 h..
2 t.t
3 .hr
4 .rr
5 .rr

Turn = 4.
  012
0 .h.
1 h..
2 t.t
3 .tr
4 r.r
5 .rr

Turn = 5.
  012
0 .h.
1 t..
2 t.t
3 .tr
4 rrr
5 .r.

Turn = 6.
  012
0 .h.
1 t..
2 t.t
3 rrt
4 .rt
5 r..

Turn = 7.
  012
0 .h.
1 t..
2 rrt
3 rrt
4 ..t
5 r..

Turn = 8.
  012
0 .h.
1 tr.
2 rrt
3 r.t
4 ..t
5 r..

Turn = 9.
  012
0 .r.
1 tr.
2 rrt
3 r.t
4 ..t
5 r..

Turn = 10.
  012
0 .r.
1 rr.
2 rtt
3 ..t
4 r.t
5 r..

Turn = 11.
  012
0 r..
1 rt.
2 rtt
3 ..t
4 r.t
5 .r.

Turn = 12.
  012
0 r..
1 rt.
2 rtt
3 ..t
4 .rt
5 ..r

Turn = 13.
  012
0 r..
1 rt.
2 ttt
3 ..t
4 .rr
5 ..r

Turn = 14.
  012
0 r..
1 tr.
2 ttt
3 ..r
4 .rr
5 ..r

Turn = 15.
  012
0 rr.
1 t..
2 ttt
3 ..r
4 ..r
5 .rr

Turn = 16.
  012
0 rr.
1 t..
2 ttt
3 ..t
4 .r.
5 .rr

Turn = 17.
  012
0 r.r
1 .t.
2 ttt
3 ..t
4 r..
5 r.r

Turn = 18.
  012
0 ..r
1 rt.
2 ttt
3 ..t
4 r..
5 r.r

Turn = 19.
  012
0 ..r
1 rt.
2 .tt
3 r.t
4 r..
5 r.r

Turn = 20.
  012
0 ..r
1 .t.
2 rtt
3 r.t
4 .rr
5 .r.

Turn = 21.
  012
0 ..r
1 .t.
2 rtt
3 r.r
4 .rr
5 ..r

Turn = 22.
  012
0 .r.
1 .r.
2 rrt
3 ..r
4 rrr
5 ..r

Turn = 23.
  012
0 rr.
1 .r.
2 r.t
3 .r.
4 ..r
5 rrr

Turn = 24.
  012
0 rr.
1 .r.
2 ..t
3 rrr
4 ...
5 rrr

Turn = 25.
  012
0 ..r
1 r.r
2 .rt
3 ..t
4 r.r
5 rr.

Turn = 26.
  012
0 ..r
1 .rr
2 r.t
3 ..r
4 r.r
5 rr.

Turn = 27.
  012
0 .rr
1 ..r
2 ..t
3 r.r
4 .rr
5 r.r

Turn = 28.
  012
0 .rr
1 .r.
2 ..t
3 ..r
4 rrr
5 r.r

Turn = 29.
  012
0 r.r
1 r..
2 ..t
3 .rr
4 r.r
5 .rr

Turn = 30.
  012
0 rr.
1 r..
2 .rt
3 ..t
4 rr.
5 .rr

Turn = 31.
  012
0 rr.
1 .r.
2 r.t
3 r.t
4 r..
5 .rr

Turn = 32.
  012
0 rr.
1 .r.
2 r.t
3 r.t
4 r..
5 rr.

Turn = 33.
  012
0 ..r
1 r.t
2 .rt
3 r.t
4 r..
5 rr.

Turn = 34.
  012
0 ..r
1 ..r
2 rrr
3 r.t
4 .r.
5 rr.

Turn = 35.
  012
0 ..r
1 ..r
2 rrt
3 .rt
4 ..r
5 r.r

Turn = 36.
  012
0 ..r
1 ..r
2 rrr
3 .rr
4 ..r
5 r.r

Turn = 37.
  012
0 ..r
1 r.r
2 r.r
3 .rr
4 ..r
5 .rr

Turn = 38.
  012
0 rr.
1 ..r
2 rrr
3 ..r
4 .r.
5 .rr

Turn = 39.
  012
0 rrr
1 rrr
2 ...
3 ...
4 r.r
5 .rr

Turn = 40.
  012
0 rrr
1 rrr
2 ...
3 ...
4 r.r
5 .rr

Turn = 41.
  012
0 rrr
1 rrr
2 ...
3 ...
4 .rr
5 rr.

Turn = 42.
  012
0 rrr
1 rrr
2 ...
3 ..r
4 r..
5 rr.

Turn = 43.
  012
0 rrr
1 rrr
2 ..r
3 ...
4 rr.
5 r..

*** Darwin 14x4 ***
Turn = 0.
  0123
0 ttrt
1 frfh
2 hhrr
3 hthf
4 hfhf
5 rrt.
6 .ff.
7 tfhh
8 hthf
9 hrtf
0 hrrt
1 .hh.
2 frth
3 hfhh

Turn = 8.
  0123
0 rrrr
1 rrrr
2 tttt
3 tttt
4 tttt
5 rrtr
6 .r.r
7 rrr.
8 rrrt
9 rrrt
0 rrtt
1 rht.
2 trrt
3 .rtt

Turn = 16.
  0123
0 rrrr
1 rrrr
2 rrrr
3 rrrr
4 rrtr
5 rrrr
6 rrrr
7 r.tt
8 r.tt
9 rrrt
0 rrrr
1 ..rr
2 rr.t
3 rrrt

Turn = 24.
  0123
0 rrrr
1 rrrr
2 rrrr
3 .rrr
4 rrrr
5 rrrr
6 rrrr
7 rrrr
8 r.rr
9 rrrr
0 r.r.
1 rrrr
2 .rrr
3 rrrr

Turn = 32.
  0123
0 rrrr
1 rrrr
2 rrrr
3 rrrr
4 rr.r
5 rrrr
6 r.rr
7 rrr.
8 rrrr
9 rrrr
0 rr.r
1 .rrr
2 rrrr
3 rrrr

*** Darwin 10x4 ***
Turn = 0.
  0123
0 ....
1 ....
2 .h..
3 r...
4 ....
5 ....
6 ....
7 ...f
8 ....
9 ....

Turn = 8.
  0123
0 r...
1 ....
2 ....
3 ....
4 ...r
5 ....
6 ....
7 ...f
8 ....
9 ....

Turn = 16.
  0123
0 ....
1 ....
2 ....
3 ...r
4 ....
5 .r..
6 ....
7 r...
8 ....
9 ....

Turn = 24.
  0123
0 r...
1 ....
2 ....
3 ...r
4 ....
5 ....
6 ....
7 ....
8 ...r
9 ....

*** Darwin 14x8 ***
Turn = 0.
  01234567
0 r.f.frhr
1 .t..hf.t
2 t..r.ft.
3 htrtr.r.
4 hrrttttt
5 f.fthf.h
6 ....frfr
7 r.hrhr.t
8 ..t...fh
9 f.t..hrt
0 .....thf
1 .r..h.rt
2 fttrrrhr
3 t..rtr..

Turn = 2.
  01234567
0 r.frf.hr
1 .t..hrtt
2 t....ft.
3 ttttt.t.
4 hr.ttttt
5 f.rttfth
6 r...frr.
7 h.rh.hrr
8 ..tt..ft
9 f.t.h.rr
0 .....trt
1 t....rrt
2 ttttrr..
3 tr..rr.r

Turn = 4.
  01234567
0 .trrf.tr
1 .t..hrtr
2 t...t.t.
3 ttttt.t.
4 r.rttttt
5 r..tttrt
6 r.r.ttr.
7 h.rrhhrr
8 ..tr..rr
9 f.t.r.r.
0 .....trr
1 t....rrr
2 tttttr.r
3 tt..r.r.

Turn = 6.
  01234567
0 .trrf.rr
1 .t..hrr.
2 t...t.r.
3 tttrtr.r
4 r.rttttt
5 r..ttttt
6 rr..trr.
7 h.rrhrrr
8 ..t.r.rr
9 f.rrr...
0 .....ttr
1 t...r.tt
2 ttttt.rr
3 tt..t..r

Turn = 8.
  01234567
0 .tttfrrr
1 .t..tr..
2 t...t...
3 ttttttrr
4 trttttrr
5 t..ttttt
6 r...trrr
7 r.rrtrr.
8 ..r.rrrr
9 frr.....
0 .....ttt
1 t.r...rr
2 ttttt.rr
3 tt..t..r

Turn = 10.
  01234567
0 .ttttrr.
1 .t..tt.r
2 t...t..r
3 tttttrr.
4 ttttttrr
5 t..tttrt
6 t...ttrt
7 t..trrr.
8 r.r.r.r.
9 r.r...tr
0 r....ttr
1 tt..r..r
2 ttttt..r
3 tt..t.rr

Turn = 12.
  01234567
0 .tttttt.
1 .t..tt.r
2 t...trrr
3 ttttt...
4 tttttttr
5 t..ttttr
6 t...ttrr
7 t..t.rr.
8 rr.r...r
9 r...rrtt
0 r....ttt
1 rrr....t
2 rtttt..r
3 tt..trr.

Turn = 14.
  01234567
0 .tttttrr
1 .t..ttrr
2 t...tt..
3 ttttt...
4 tttttttt
5 t..ttttt
6 t...ttt.
7 t..t.ttr
8 trr.r..r
9 r.....tt
0 r....rtt
1 rrr....t
2 ttrttrr.
3 tt..rrr.

Turn = 16.
  01234567
0 .tttttrr
1 .t..tttr
2 t...tt..
3 ttttt...
4 tttttttt
5 t..ttttt
6 t...rtt.
7 trrtrttt
8 r......t
9 r.....tt
0 .r....tt
1 rrr..r.t
2 rrrrtr.r
3 rr..tt.r

Turn = 18.
  01234567
0 .tttttrr
1 .t..ttt.
2 t...tt..
3 ttttt..r
4 tttttttt
5 trrttttt
6 t...ttt.
7 t..ttttt
8 t......t
9 r.....tt
0 r..r.rtt
1 rrrrr..t
2 rr..t..t
3 rr..tt.t

Turn = 20.
  01234567
0 .ttttttt
1 .t..ttt.
2 t...tt..
3 ttttt..r
4 tttttttt
5 tttttttt
6 t...ttt.
7 t..ttttt
8 r....r.t
9 r.r...tt
0 rr...rtt
1 rr..t..t
2 r...t..t
3 rr.rtt.t

Turn = 22.
  01234567
0 .ttttttt
1 .t..ttt.
2 t...tt..
3 tttttr..
4 tttttttt
5 tttttttt
6 t...trt.
7 r.rttrtt
8 rr...r.t
9 r.....tt
0 r....rrr
1 .r..t.r.
2 r.r.t..t
3 rr.rr.tt

Turn = 24.
  01234567
0 .ttttttt
1 .t..ttt.
2 t...tt..
3 tttttt..
4 tttttttt
5 ttrttttt
6 trr.ttt.
7 t..ttttt
8 r....rtt
9 r.r...tt
0 ......t.
1 r...rr.r
2 .r.rr..r
3 rr.rr.tr

Turn = 26.
  01234567
0 .ttttttt
1 .t..ttt.
2 t...tt..
3 tttttt..
4 tttttttt
5 tttttttt
6 ttt.ttt.
7 t..ttttt
8 .r...ttt
9 r...r.tt
0 ...r.rt.
1 ....r.r.
2 r..rr.rr
3 rrr...tr

Turn = 28.
  01234567
0 .ttttttt
1 .t..ttt.
2 t...tt..
3 tttttt..
4 tttttttt
5 tttttttt
6 ttt.ttt.
7 t..ttttt
8 ...r.ttt
9 ...r.rrt
0 .....ttr
1 r..rr...
2 ..rr.rr.
3 rrr...rr

Turn = 30.
  01234567
0 .ttttttt
1 .t..ttt.
2 t...tt..
3 tttttt..
4 tttttttt
5 tttttttt
6 ttt.ttt.
7 t..ttttt
8 ...t.rtt
9 ....rrrr
0 .....r.r
1 .rrr.r..
2 r.r....r
3 r.r.rrrr

Turn = 32.
  01234567
0 .ttttttt
1 .t..ttt.
2 t...tt..
3 tttttt..
4 tttttttt
5 tttttttt
6 ttt.ttt.
7 t..trttt
8 ...trrtt
9 ...rr.tt
0 ...r...t
1 rr......
2 r...rr.r
3 ..rrrrrr

*** Darwin 14x10 ***
Turn = 0.
  0123456789
0 .hrfhthtth
1 httf.hhhrh
2 fhhtfthrrf
3 .rhrrrrrrr
4 thtrhtfhrh
5 fhhfhrfrhr
6 f.rhhfrfh.
7 fhfhrffrrr
8 hhrrrrrhrh
9 fhrrftftrr
0 .rhfffthrf
1 tr.trthrfr
2 tthhhttftt
3 ftttfrthth

Turn = 1.
  0123456789
0 .hrfhtttth
1 htrf.hthrh
2 ftttrttrrf
3 .rttrrrrrr
4 trrrrrfhrh
5 fhrrhrfrrr
6 f.rhhfrrh.
7 fhfhrfrrrr
8 hhrrrrrrrr
9 frrrrrfttt
0 .rhrrfttrr
1 tthttthtrt
2 tt.ttrtttt
3 ftttfrthtt

Turn = 2.
  0123456789
0 .hrfttttth
1 httr.hthrh
2 fttrrttrrr
3 .trrrrrrrr
4 trrrrrrhrr
5 trrrrrfrrr
6 f.rhhfrrr.
7 fhrrrfrrrr
8 hhrrrrrrrr
9 frrrrrfrrr
0 .thrrfttrt
1 tthtttttrt
2 tt.ttrtttt
3 ttttttthtt

Turn = 3.
  0123456789
0 .rrtttttth
1 httt.rttrh
2 ftttrttrrr
3 .ttrrrrrrr
4 trrrrrrrrr
5 trrrrrrrrr
6 tr.rrrrrrr
7 fhrrrfrr.r
8 hhrrrrrrrr
9 rrrrrrtrrt
0 .ttttrtttt
1 tthttttrtt
2 tt.ttttttt
3 tttttttttt

Turn = 4.
  0123456789
0 .tttttttth
1 httt.rttrh
2 ttttrrtrrr
3 .ttrrrrrrr
4 tttrrrrrrr
5 rr.trrrrrr
6 rrttrrrrrr
7 frrrrrrr.r
8 hrrrrrrrrr
9 rrrrrrtrtt
0 .ttttrtttt
1 tthttttttt
2 tt.ttttttt
3 tttttttttt

Turn = 5.
  0123456789
0 .tttttttth
1 httt.rttrh
2 ttttrrtrrr
3 .ttrrrrrrr
4 tttrrrrrrr
5 rr.rrrrrrr
6 rrtrrrrrrr
7 rrrrrrrr.r
8 rrrrrrrrrr
9 .rrrrrrttr
0 rrrrtttttt
1 tttttttttt
2 tt.ttttttt
3 tttttttttt

Turn = 6.
  0123456789
0 .tttttttth
1 tttt.rtttr
2 ttttrrtrtr
3 .ttrrrrrrr
4 ttttrrrrrr
5 rr.rrrrrrr
6 rrrrrrrrrr
7 rrrrrrrr.r
8 rrrrrrrrrr
9 .rrrrrrttr
0 rrrrtttttr
1 rrtttttttt
2 tt.ttttttt
3 tttttttttt

Turn = 7.
  0123456789
0 .tttttttth
1 tttt.rtttr
2 tttrrrrrtr
3 .ttrrrrrrr
4 tttrrrrrrr
5 rr.rtrrrrr
6 rrrttrrrrr
7 rrrrrrrrr.
8 .rrrrrrrrr
9 rrrrtrrrtr
0 rrrrtttttt
1 rrrttttttt
2 tt.ttttttt
3 tttttttttt

Turn = 8.
  0123456789
0 .ttttttttt
1 tttt.ttttt
2 tttrrrrrtr
3 .ttttrrrrt
4 tttrrrrrrr
5 rt.rrrrrrr
6 rrrrrrrrrr
7 .rrrrrrrr.
8 rrrrrrrrrr
9 rrrrtrrrrr
0 rrrrttrrrt
1 rr.ttttttt
2 ttrttttttt
3 tttttttttt

Turn = 9.
  0123456789
0 .ttttttttt
1 tttt.ttttr
2 tttrtrrrtt
3 .ttrrrrrrt
4 tttrtrrrrr
5 rt.rrrrrrr
6 rrrrrrrrrr
7 rrrrrrrrr.
8 r.rrrrrrrr
9 rrrrtrrrrr
0 rrrrtrrrtr
1 tr.tttrttt
2 ttrttttttt
3 tttttttttt

Turn = 10.
  0123456789
0 .ttttttttt
1 tttt.tttrt
2 ttttttrrtt
3 .ttrrrrrrt
4 tttrrrrrrr
5 rt.rrrrrrr
6 rrrrrrrrrr
7 rrrrrrrr.r
8 rrrrrrrrrr
9 r.rrrrrrtr
0 tr.rrrrrtr
1 trrtttrttt
2 tttttttttt
3 tttttttttt

Turn = 11.
  0123456789
0 .ttttttttt
1 tttt.ttttt
2 ttttttttrt
3 .tttttrrrr
4 tttrttrrrr
5 tt.rtrrrrr
6 trrrrrrrrr
7 rrrrrrrrrr
8 rrrrrrrr.r
9 .rrrrrrrtr
0 tr.rrrrrrr
1 trrttttttt
2 tttttttttt
3 tttttttttt

Turn = 12.
  0123456789
0 .ttttttttt
1 tttt.ttttt
2 tttttttttt
3 .tttttrrrr
4 tttrttrrrr
5 tt.rtrrrrr
6 trrrrrrrrr
7 rrrrrrrrrr
8 rrrrrrrr.r
9 .r.rrrrttr
0 trrrrrrrrt
1 trrttttttt
2 tttttttttt
3 tttttttttt

Turn = 13.
  0123456789
0 .ttttttttt
1 tttt.ttttt
2 tttttttttt
3 .ttttttrrt
4 tttttttrrr
5 tt.tttrtrr
6 trrrrtttrr
7 ttrrrrrrrr
8 .rrrrrr.rr
9 rr.rrrrtrr
0 trrrrrrtrt
1 trrttttttt
2 tttttttttt
3 tttttttttt

Turn = 14.
  0123456789
0 .ttttttttt
1 tttt.ttttt
2 tttttttttt
3 .ttttttrtr
4 tttttttrrr
5 tt.rttrrrr
6 trrrrtrtrr
7 trrrrrrrrr
8 .rrrrr.rrr
9 r.rrrrrtrr
0 rrrrrrtttt
1 ttrrrttttt
2 tttttttttt
3 tttttttttt

Turn = 15.
  0123456789
0 .ttttttttt
1 tttt.ttttt
2 tttttttttt
3 .tttttttrr
4 tttttttttr
5 tt.rttrrrr
6 tttrtrrtrr
7 trrrrrrrrr
8 .r.rrr.rrr
9 rrrrrrrttt
0 rrrrrrtttt
1 ttrrrttttt
2 tttttttttt
3 tttttttttt

*** Darwin 12x4 ***
Turn = 0.
  0123
0 .hth
1 ..h.
2 ..rf
3 .r..
4 ..r.
5 .rr.
6 h...
7 .r..
8 ....
9 ....
0 .t.t
1 ..t.

Turn = 6.
  0123
0 h.tt
1 ...h
2 ...r
3 ...r
4 r...
5 r...
6 hrr.
7 ....
8 ...r
9 ....
0 ..t.
1 .rt.

Turn = 12.
  0123
0 h.r.
1 r.rr
2 r..r
3 r...
4 ....
5 ..r.
6 ....
7 r...
8 ....
9 ...r
0 r.r.
1 rr..

Turn = 18.
  0123
0 rrr.
1 rr.r
2 ...r
3 r..r
4 ....
5 ....
6 ....
7 r.r.
8 ....
9 ...r
0 ...r
1 r.r.

Turn = 24.
  0123
0 r.rr
1 ...r
2 r...
3 ....
4 r.rr
5 .r..
6 ....
7 rrr.
8 ....
9 r..r
0 ....
1 ...r

Turn = 30.
  0123
0 rrrr
1 rr..
2 ..r.
3 r...
4 ....
5 ..r.
6 ....
7 r..r
8 ...r
9 r..r
0 ....
1 ..r.

Turn = 36.
  0123
0 .r.r
1 ...r
2 ..r.
3 ..rr
4 ...r
5 ..r.
6 ..r.
7 .r..
8 ..r.
9 r..r
0 .r..
1 ..r.

Turn = 42.
  0123
0 ...r
1 .r..
2 .r..
3 .r..
4 r.r.
5 .r..
6 r...
7 ..r.
8 ....
9 ..rr
0 r..r
1 r..r

*** Darwin 6x2 ***
Turn = 0.
  01
0 r.
1 ..
2 f.
3 ..
4 ..
5 ..

Turn = 1.
  01
0 r.
1 ..
2 f.
3 ..
4 ..
5 ..

Turn = 2.
  01
0 r.
1 ..
2 f.
3 ..
4 ..
5 ..

Turn = 3.
  01
0 r.
1 ..
2 f.
3 ..
4 ..
5 ..

Turn = 4.
  01
0 r.
1 ..
2 f.
3 ..
4 ..
5 ..

Turn = 5.
  01
0 .r
1 ..
2 f.
3 ..
4 ..
5 ..

Turn = 6.
  01
0 .r
1 ..
2 f.
3 ..
4 ..
5 ..

Turn = 7.
  01
0 ..
1 .r
2 f.
3 ..
4 ..
5 ..

*** Darwin 12x3 ***
Turn = 0.
  012
0 ...
1 ...
2 tr.
3 ...
4 t.h
5 rrt
6 ...
7 ...
8 hht
9 rhh
0 .ft
1 ..f

Turn = 3.
  012
0 ...
1 ...
2 tt.
3 ..r
4 t..
5 ..r
6 .r.
7 r..
8 rtt
9 rht
0 .ft
1 ..t

Turn = 6.
  012
0 ..r
1 ...
2 tt.
3 ...
4 t..
5 r..
6 ...
7 r.r
8 rrr
9 .tt
0 .tt
1 r.t

Turn = 9.
  012
0 r..
1 ...
2 tt.
3 ...
4 t..
5 tr.
6 ...
7 r..
8 r.t
9 .tt
0 rtt
1 .tt

Turn = 12.
  012
0 ...
1 t..
2 tt.
3 ...
4 t..
5 tt.
6 r..
7 ...
8 ..t
9 .tt
0 rtt
1 ttt

Turn = 15.
  012
0 ...
1 t..
2 tt.
3 ...
4 t..
5 rr.
6 r..
7 ...
8 ..t
9 .tt
0 rtt
1 ttt

Turn = 18.
  012
0 ...
1 t..
2 tt.
3 ...
4 t..
5 rt.
6 r..
7 ...
8 ..t
9 .tt
0 rtt
1 ttt

Turn = 21.
  012
0 ...
1 t..
2 tt.
3 ...
4 t..
5 tt.
6 t..
7 ...
8 ..t
9 .tt
0 rtt
1 ttt

Turn = 24.
  012
0 ...
1 t..
2 tt.
3 ...
4 t..
5 tt.
6 t..
7 ...
8 ..t
9 .tt
0 rtt
1 ttt

Turn = 27.
  012
0 ...
1 t..
2 tt.
3 ...
4 t..
5 tt.
6 t..
7 ...
8 ..t
9 .tt
0 rtt
1 ttt

Turn = 30.
  012
0 ...
1 t..
2 tt.
3 ...
4 t..
5 tt.
6 t..
7 ...
8 ..t
9 .tt
0 rtt
1 ttt

Turn = 33.
  012
0 ...
1 t..
2 tt.
3 ...
4 t..
5 tt.
6 t..
7 ...
8 ..t
9 .tt
0 rtt
1 ttt

Turn = 36.
  012
0 ...
1 t..
2 tt.
3 ...
4 t..
5 tt.
6 t..
7 ...
8 ..t
9 .tt
0 rtt
1 ttt

Turn = 39.
  012
0 ...
1 t..
2 tt.
3 ...
4 t..
5 tt.
6 t..
7 ...
8 ..t
9 .tt
0 rtt
1 ttt

*** Darwin 3x7 ***
Turn = 0.
  0123456
0 .......
1 .......
2 f......

Turn = 4.
  0123456
0 .......
1 .......
2 f......

Turn = 8.
  0123456
0 .......
1 .......
2 f......

Turn = 12.
  0123456
0 .......
1 .......
2 f......

Turn = 16.
  0123456
0 .......
1 .......
2 f......

Turn = 20.
  0123456
0 .......
1 .......
2 f......

Turn = 24.
  0123456
0 .......
1 .......
2 f......

*** Darwin 10x10 ***
Turn = 0.
  0123456789
0 rrtt.h..h.
1 rrhrrf.frt
2 .h..ttf.th
3 thr.hh.f.t
4 hf.rr.t.rt
5 f.f..hrtt.
6 .f.f.hff..
7 ttfhhtfftt
8 hht.hrfhr.
9 ..rfhrtt.f

Turn = 9.
  0123456789
0 rr.r...r.r
1 r.rtrr.r.t
2 rr.trrrrtt
3 t.t.rrtt.t
4 ttt...r.rt
5 t.tt.tttr.
6 .t.ttt.rrr
7 rtt..trtrr
8 tttrrrr.r.
9 .r.rrr.rrr

Turn = 18.
  0123456789
0 r.r....rrr
1 rr...rr.rr
2 rr.r.rrrrr
3 rr.r..r.rr
4 rrr.rtttrr
5 .rr.trtttr
6 r.rrrr.trr
7 r...rrrttr
8 r.rrrrttt.
9 rrrr....rr

*** Darwin 11x2 ***
Turn = 0.
  01
0 h.
1 tf
2 t.
3 rr
4 r.
5 rh
6 th
7 hr
8 rr
9 t.
0 rh

Turn = 9.
  01
0 r.
1 tt
2 rr
3 r.
4 r.
5 tt
6 tt
7 tt
8 .t
9 tt
0 tt

Turn = 18.
  01
0 rr
1 .r
2 rr
3 .r
4 .t
5 tt
6 tt
7 tt
8 .t
9 tt
0 tt

Turn = 27.
  01
0 rr
1 r.
2 .r
3 .t
4 rt
5 tt
6 tt
7 tt
8 .t
9 tt
0 tt

*** Darwin 9x4 ***
Turn = 0.
  0123
0 ....
1 .r.f
2 ...t
3 .t.f
4 .t..
5 ...h
6 ....
7 ....
8 f...

Turn = 7.
  0123
0 ...t
1 ...t
2 ...t
3 .t.t
4 .t.t
5 ....
6 ....
7 ....
8 f...

Turn = 14.
  0123
0 ...t
1 ...t
2 ...t
3 .t.t
4 .t.t
5 ....
6 ....
7 ....
8 f...

*** Darwin 2x13 ***
Turn = 0.
  0123456789012
0 rt.hfh..rffhh
1 tfthrtt.frhh.

Turn = 8.
  0123456789012
0 tt.ttrr.rr.rr
1 tttttrr..rrrr

*** Darwin 4x9 ***
Turn = 0.
  012345678
0 ..fr..h..
1 h..f.....
2 .t...h.t.
3 rh.t..fht

Turn = 1.
  012345678
0 ..fr.....
1 ...r..h..
2 tr..h..t.
3 rr.t..fht

Turn = 2.
  012345678
0 ..fr.....
1 ....r....
2 rt.h..ht.
3 tt.t..fht

Turn = 3.
  012345678
0 ..f.r....
1 .....r...
2 trh...tt.
3 rr.t..fht

Turn = 4.
  012345678
0 ..f..r...
1 ......r..
2 rth...tt.
3 tt.t..ttt

Turn = 5.
  012345678
0 ..f...r..
1 .......r.
2 trh...tt.
3 rr.t..ttt

Turn = 6.
  012345678
0 ..f....r.
1 ........r
2 rth...tt.
3 tt.t..ttt

Turn = 7.
  012345678
0 ..f.....r
1 ........r
2 trh...tt.
3 rr.t..ttt

Turn = 8.
  012345678
0 ..f.....r
1 .........
2 rth...ttt
3 tt.t..ttt

Turn = 9.
  012345678
0 ..f......
1 ........r
2 trh...ttt
3 rr.t..ttt

Turn = 10.
  012345678
0 ..f......
1 ........r
2 rth...ttt
3 tt.t..ttt

Turn = 11.
  012345678
0 ..f......
1 ........t
2 trh...ttt
3 rr.t..ttt

Turn = 12.
  012345678
0 ..f......
1 ........t
2 rth...ttt
3 tt.t..ttt

Turn = 13.
  012345678
0 ..f......
1 ........t
2 trh...ttt
3 rr.t..ttt

Turn = 14.
  012345678
0 ..f......
1 ........t
2 rth...ttt
3 tt.t..ttt

Turn = 15.
  012345678
0 ..f......
1 ........t
2 trh...ttt
3 rr.t..ttt

Turn = 16.
  012345678
0 ..f......
1 ........t
2 rth...ttt
3 tt.t..ttt

Turn = 17.
  012345678
0 ..f......
1 ........t
2 trh...ttt
3 rr.t..ttt

Turn = 18.
  012345678
0 ..f......
1 ........t
2 rth...ttt
3 tt.t..ttt

Turn = 19.
  012345678
0 ..f......
1 ........t
2 trh...ttt
3 rr.t..ttt

Turn = 20.
  012345678
0 ..f......
1 ........t
2 rth...ttt
3 tt.t..ttt

Turn = 21.
  012345678
0 ..f......
1 ........t
2 trh...ttt
3 rr.t..ttt

Turn = 22.
  012345678
0 ..f......
1 ........t
2 rth...ttt
3 tt.t..ttt

Turn = 23.
  012345678
0 ..f......
1 ........t
2 trh...ttt
3 rr.t..ttt

Turn = 24.
  012345678
0 ..f......
1 ........t
2 rth...ttt
3 tt.t..ttt

Turn = 25.
  012345678
0 ..f......
1 ........t
2 trh...ttt
3 rr.t..ttt

Turn = 26.
  012345678
0 ..f......
1 ........t
2 rth...ttt
3 tt.t..ttt

Turn = 27.
  012345678
0 ..f......
1 ........t
2 trh...ttt
3 rr.t..ttt

Turn = 28.
  012345678
0 ..f......
1 ........t
2 rth...ttt
3 tt.t..ttt

Turn = 29.
  012345678
0 ..f......
1 ........t
2 trh...ttt
3 rr.t..ttt

Turn = 30.
  012345678
0 ..f......
1 ........t
2 rth...ttt
3 tt.t..ttt

Turn = 31.
  012345678
0 ..f......
1 ........t
2 trh...ttt
3 rr.t..ttt

Turn = 32.
  012345678
0 ..f......
1 ........t
2 rth...ttt
3 tt.t..ttt

Turn = 33.
  012345678
0 ..f......
1 ........t
2 trh...ttt
3 rr.t..ttt

Turn = 34.
  012345678
0 ..f......
1 ........t
2 rth...ttt
3 tt.t..ttt

*** Darwin 14x7 ***
Turn = 0.
  0123456
0 ffrhfrh
1 rrhrhrf
2 frrfhfh
3 rftfrrf
4 fthrfff
5 fhffrht
6 tfrhrhr
7 fhfhfrr
8 t.frhrf
9 ttf.frf
0 rfttthh
1 frrrhtt
2 ttrft.t
3 ffftrth

Turn = 3.
  0123456
0 frrhrrr
1 rrtrrrr
2 rrtrrrh
3 rrrrrtf
4 rrrrrrf
5 rhrrrrr
6 trrhrrr
7 tttttrr
8 t.f.trr
9 tttrrrf
0 rtrrt.t
1 rrrrttt
2 rrrrttt
3 frrrtth

Turn = 6.
  0123456
0 rrrrrrr
1 rrrrrrr
2 rrrrrrr
3 rrrrrrr
4 rrrrrrr
5 rrrrrrr
6 trrtrrr
7 tr.trrr
8 trf.trr
9 tttrrrr
0 ttrtt.t
1 ttttttt
2 trrrttt
3 ttrtttt

Turn = 9.
  0123456
0 rrrrrrr
1 rrrrrrr
2 rrrrrrr
3 rrrrrrr
4 rrrrrrr
5 rrrrrrr
6 rrrrrrr
7 tr.rrrr
8 ttt.rrr
9 tttttrr
0 tttrr.t
1 tttrttt
2 tttrttt
3 ttttttt

Turn = 12.
  0123456
0 rrrrrrr
1 rrrrrrr
2 rrrrrrr
3 rrrrrrr
4 rrrrrrr
5 rrrrrrr
6 rrrrrrr
7 rtrrr.r
8 tttt.rr
9 ttttttt
0 ttttt.t
1 ttttttt
2 ttttttt
3 ttttttt

Turn = 15.
  0123456
0 rrrrrrr
1 rrrrrrr
2 rrrrrrr
3 rrrrrrr
4 rrrrrrr
5 rrrrrrr
6 rrrrrr.
7 rrrrr.r
8 trrtrtt
9 ttrtttr
0 ttttt.r
1 ttttttr
2 ttttttt
3 ttttttt

Turn = 18.
  0123456
0 rrrrrrr
1 rrrrrrr
2 rrrrrrr
3 rrrrrrr
4 rrrrrrr
5 rrrrr.r
6 rrrrrr.
7 rrrrrtt
8 trtrrrr
9 trttr.r
0 ttttrrr
1 ttttttr
2 ttttttr
3 ttttttr

Turn = 21.
  0123456
0 rrrrrrr
1 rrrrrrr
2 rrrrrrr
3 rrrr.rr
4 rrrrrrr
5 rrrrrrr
6 rrrrrrr
7 rrrrrr.
8 rrrrr.r
9 tttrrrr
0 ttttttt
1 ttttttt
2 ttttttr
3 ttttttr

Turn = 24.
  0123456
0 rrrrrrr
1 rrrrrrr
2 rrrrrrr
3 rrr.rrr
4 rrrrrrr
5 rrrrrrr
6 rrrrrr.
7 rrrrr.r
8 rrrrrrr
9 rtrrrrr
0 tttrtrr
1 ttttttt
2 ttttttr
3 tttttrr

Turn = 27.
  0123456
0 rrrrrrr
1 rrrrrrr
2 rrrrrrr
3 rrrrrrr
4 rr.rrrr
5 rrrr.rr
6 rrrrrrr
7 rrr.rrr
8 rrrrrrr
9 tttrrrr
0 tttrrrt
1 ttttttt
2 ttttttt
3 ttttttt

Turn = 30.
  0123456
0 rrrrrrr
1 rrrrrrr
2 rrrrrrr
3 r.rrrrr
4 rrrrr.r
5 rrrrrrr
6 rrrrrrr
7 rrrrrrr
8 rrrr.rr
9 ttrtrrr
0 tttttrr
1 tttttrr
2 ttttttt
3 ttttttt

Turn = 33.
  0123456
0 rrrrrrr
1 rrrrrrr
2 rrrrrrr
3 rrrrrrr
4 .rrr.rr
5 rrrrrrr
6 rrrrrrr
7 rrr.rrr
8 rttrrrr
9 tttrtrr
0 ttttttt
1 ttttttt
2 ttttttt
3 ttttttt

Turn = 36.
  0123456
0 rrrrrrr
1 rrrrrrr
2 rrrrrrr
3 .rrrrrr
4 rrrrrrr
5 rrr.rrr
6 rrr.rrr
7 rrrrrrr
8 rtrrrrr
9 ttttrrr
0 ttttrrr
1 ttttttt
2 ttttttt
3 ttttttt

Turn = 39.
  0123456
0 rrrrrrr
1 rrrrrrr
2 rrrrrrr
3 rrrrrrr
4 .rrrrrr
5 r.r.rrr
6 rrrrrrr
7 rrrrrrr
8 rrtrrrr
9 rtttrrr
0 ttttttt
1 ttttttt
2 ttttttt
3 ttttttt

Turn = 42.
  0123456
0 rrrrrrr
1 rrrrrrr
2 rrrrrrr
3 rrrrrrr
4 rrrrr.r
5 rrrrr.r
6 rrr.rrr
7 rrrrrrr
8 rrrrrrr
9 rrrttrr
0 trrttrr
1 tttttrt
2 ttttttt
3 ttttttt

*** Darwin 8x13 ***
Turn = 0.
  0123456789012
0 .............
1 .......t..f..
2 .............
3 .............
4 .............
5 ..t.......frt
6 .............
7 .............

Turn = 9.
  0123456789012
0 ............r
1 .......t..f..
2 .............
3 .............
4 .............
5 ..t.......f.t
6 .............
7 .............

Turn = 18.
  0123456789012
0 .............
1 .......t..f..
2 .............
3 ............r
4 ..........r..
5 ..t.......f..
6 .............
7 .............

Turn = 27.
  0123456789012
0 .......r.....
1 .......t..f..
2 .............
3 .............
4 .r...........
5 ..t.......f..
6 .............
7 .............

Turn = 36.
  0123456789012
0 .............
1 r......t..f..
2 .r...........
3 .............
4 .............
5 ..t.......f..
6 .............
7 .............

*** Darwin 14x14 ***
Turn = 0.
  01234567890123
0 .rhrhh.tthfhtr
1 rthfff.r.rtrtt
2 hfhftfhftthtr.
3 ft.ff.fh.htfrh
4 hf.rrrfh.rft.f
5 ttfrfhfffrfttf
6 ..tt.h.fh.hrrt
7 fthfrffhffthrt
8 frf.f..ft.ffr.
9 ftffrrt.fth.tf
0 ffrtr.tth..hft
1 hrf.rfrrt.ftfh
2 f.hr.rfhtt.hht
3 hfhf.trf.rfrf.

Turn = 8.
  01234567890123
0 rr.rrr.t.ttttt
1 rrrrrrrttttttt
2 rr..rrttttttt.
3 rttrrrttt.tttt
4 rttttttt.ttt.t
5 ttttt.ttf.tttt
6 t.tttrhf.ttttt
7 .tttt.rrrttttt
8 tttrt.rtt.ttt.
9 trt.ttt.ttt.tt
0 rrr.t.ttt.t.tt
1 rrr.ttttt.tttr
2 ..rrr.tttttttr
3 hrrrr..tttt.t.

Turn = 16.
  01234567890123
0 rr.rrrrr.ttttt
1 rrrrrrrrtttttt
2 rr.rrrrtttttt.
3 rrrrrrrtt.tttt
4 rrrr..rt.ttt.t
5 rrrrt.ttt.tttt
6 rttttt.ttttttt
7 r.ttt.tttttttt
8 .rrtt.ttt.ttt.
9 ttrrttt.ttt.tt
0 ttr.t.ttt.t.tt
1 rt.tttttt.tttt
2 rr.tt.tttttttt
3 rr....ttttt.t.

Turn = 24.
  01234567890123
0 .rrrr.tttttttt
1 rrrrrr.rrttttt
2 rrrrr..r.rttt.
3 rrrrr.rrtttttt
4 rrrrrrrrtttt.t
5 rrrrr.rrt.tttt
6 rrrrrrtttttttt
7 ...r.rrtrttttt
8 tttt.rtrt.ttt.
9 ttttttt.ttt.tt
0 tt.t.tttt.t.tt
1 tt.tttttt.tttt
2 tt.tt.tttttttt
3 .r.t..ttttt.t.

Turn = 32.
  01234567890123
0 rrr.rrr.tttttt
1 rrrrrr.trttttt
2 rrrrrr.rttttt.
3 rrr.rrrrrttttt
4 .rrr.rrrtrrt.t
5 rrrrr.r..rrttt
6 rrtrr...tttttt
7 rttr.rrtt.tttt
8 rt.tttttttttt.
9 ttttttr.ttt.tt
0 tttt.trtt.t.tt
1 ttttttttt.tttt
2 tt..rttrtttttt
3 .....rrtttt.t.

Turn = 40.
  01234567890123
0 rrrrr.rrtttttt
1 rrrrr.rttttttt
2 rrrrrr.rrtttt.
3 .rrr.rrrrttttt
4 rrrrrr...ttt.t
5 rrrrr...rttttt
6 rr.rr..ttttttt
7 rrr.rrrrt.tttt
8 rrrttrttttttt.
9 rrrtttt.ttt.tt
0 rrtt.tttt.t.tt
1 rrttttttt.tttt
2 tt..tttttttttt
3 .....tttttt.t.

*** Darwin 7x8 ***
Turn = 0.
  01234567
0 ..h.t..h
1 ....r..r
2 ..h.r...
3 .r.tr...
4 .....f..
5 ....r...
6 .......t

Turn = 7.
  01234567
0 h..rrt.r
1 .r..t...
2 ....t...
3 ...t....
4 .....f..
5 ........
6 rr.....t

Turn = 14.
  01234567
0 h...tt.r
1 ........
2 r..tt...
3 .......r
4 .....f..
5 .......r
6 ..r...rr

Turn = 21.
  01234567
0 ...rtt.r
1 ....r...
2 ...trrr.
3 .......r
4 .....f..
5 ....r...
6 ...r....

Turn = 28.
  01234567
0 r..t..rr
1 ...t.tt.
2 ...ttt..
3 ........
4 .....f..
5 .r......
6 ..r.....

Turn = 35.
  01234567
0 ..trr...
1 .....ttt
2 .r.rtt..
3 ........
4 .....f..
5 .......r
6 .......r

*** Darwin 13x6 ***
Turn = 0.
  012345
0 .r.thh
1 frtrt.
2 .f...f
3 ft...r
4 .rrf..
5 .ftrfr
6 r.rfrr
7 ft.rft
8 rrhthf
9 r...r.
0 .rrh.t
1 thttth
2 tr..r.

Turn = 5.
  012345
0 r..tth
1 .rttt.
2 .rt..r
3 rr...r
4 rr..tr
5 .rrtt.
6 .ttrtr
7 ttrrtt
8 .tr.tt
9 .rr.t.
0 rrr.tt
1 .rrttt
2 trr...

*** Darwin 9x9 ***
Turn = 0.
  012345678
0 thtfttf.t
1 .rthr.t.r
2 hrff.tfhh
3 t.t.hrr.r
4 fh..r.rhh
5 r.f.tffr.
6 ..f.hftft
7 .rtfffht.
8 .rhf.hf.h

Turn = 2.
  012345678
0 trtfrtt.t
1 .tthrrt.t
2 trtfhrt.t
3 t.t...ttt
4 r.rrr..tt
5 r.f.ttfr.
6 ..f.ttt.t
7 r.ttfttrr
8 r.tt.hf.h

Turn = 4.
  012345678
0 ttttr.rrr
1 rrthrrr.t
2 t.tthr.rt
3 t.r...ttt
4 .rr.r..tt
5 r.frrttt.
6 r.t.ttt.t
7 r.ttttt.t
8 ..tt.htrh

Turn = 6.
  012345678
0 tttt.r.rr
1 tttttrrrr
2 .tttt.rtr
3 tr....ttr
4 rr.r...tt
5 r.tt.ttt.
6 .rttttt.t
7 .tttttt.t
8 ..tt.trrt

Turn = 8.
  012345678
0 tttt..rrr
1 tttttrrrr
2 .tttt.trr
3 rr....ttt
4 rr.....tt
5 rrtt.ttt.
6 .rtttttrt
7 .rttttt.t
8 ..tt.tt.t

*** Darwin 8x5 ***
Turn = 0.
  01234
0 tf.tr
1 h..r.
2 .frhh
3 f.hft
4 hhtrf
5 r...r
6 .rh.f
7 rf.rh

Turn = 8.
  01234
0 trrtt
1 rr..t
2 rf..t
3 r..tt
4 r..tt
5 r..r.
6 .rrrr
7 rrrrr

Turn = 16.
  01234
0 rrtrt
1 rr.rt
2 r..tt
3 r...t
4 r...t
5 rrr.t
6 rr.rt
7 rrr.r

Turn = 24.
  01234
0 r.r.r
1 rr.rr
2 r..rr
3 r.rrr
4 rr.rr
5 rrrr.
6 rrrrr
7 ..r..

*** Darwin 14x13 ***
Turn = 0.
  0123456789012
0 trrhrrrf.frth
1 frrfrf.htrhff
2 frf.thffhffrf
3 hftt.thtrtrhr
4 rt.tthtfhffft
5 fftfff.rtfr..
6 tftr.thhh.t.f
7 fhh.htrr.th.t
8 ffh.hh.rt.ttr
9 hrrh.rt.httfh
0 frtt.r.trrhth
1 t.hffrrfttrhh
2 hhht.rrf.rttf
3 tf.hh.ftht.rt

Turn = 1.
  0123456789012
0 trrhrrrr.trtt
1 tttfr.rrtthrf
2 frr.rhffhffrf
3 rftt.tttrrrhr
4 rt.ttttfhrff.
5 fttttfr.trr.r
6 ttt..thrh.t.t
7 fhtrhttr.tt.t
8 ftr..rhrt.ttt
9 hrrhhrt.httft
0 f.tt...trthtt
1 tthffrrtrrrrt
2 thhtrr.thtttt
3 tf.th.tt.tr.t

Turn = 2.
  0123456789012
0 trrhr.rr.rrrr
1 ttrfrrrrrrhrf
2 frtr.htfhffrf
3 rftt.tttrrrh.
4 rt.ttttthrrrr
5 fttttrr.rr..r
6 ttt..thrrrt.r
7 ftt..rtr.tt.r
8 ftrrhrttt.ttt
9 hrrh.rt.httft
0 f.tth..trtttt
1 ttttfrrrrtttt
2 tthrrr.rhtttt
3 tf.th.tt.rr.t

Turn = 3.
  0123456789012
0 ttrhr.r.rrrrr
1 ttrrrrrrrrhrr
2 frtr.rtfrffrr
3 rftt.rttrrrh.
4 r.tttrtthrr.r
5 tttttrt.rr.rr
6 ttt..rtrrrt.r
7 ttt..rt.rrtt.
8 frtr.rttt.ttt
9 hrtrrtt.htttt
0 t.trh..tttttt
1 tttrrrrrrtttt
2 tthrrrt.rtttt
3 tf.tt.ttrr..t

Turn = 4.
  0123456789012
0 trrh.r.rrrrrr
1 ttrrtrrrrrrrr
2 frtt.rtttrfr.
3 rrtt.rrttrrrr
4 .rtttttttr.r.
5 ttttttr.rrt.r
6 ttt..rrr.rtrr
7 ttt..rrtrrrt.
8 rrtr.rttt.ttt
9 httrttt.ttttt
0 t.ttr..tttttt
1 ttttrrrrrtttt
2 tthrtrtr.tttt
3 tt.rr.ttrr..t

Turn = 5.
  0123456789012
0 trr.h.rrrrrrr
1 trrt.rrrrrrrr
2 trttrrrtrrrr.
3 ttrt.rrrrrrr.
4 .rrttrrttrr.r
5 tttttrr.rrt.r
6 ttt..rrrr.trr
7 ttt.r.rrrrrt.
8 tttt.rrrt.ttt
9 htrrttt.ttttt
0 t.ttt..tttttt
1 ttttrtrrrtttt
2 tttrttrr.tttt
3 tt.r.rrttt..t

Turn = 6.
  0123456789012
0 trr..hrrrrrrr
1 trrr.rrrrrrrr
2 trrr.rrrrrr.r
3 ttttrrrtrrrr.
4 .ttttrrtrrr.r
5 tttttrr.rrt.r
6 ttt..rrrr.trr
7 tttr..rrr.rr.
8 tttt.rr.ttrrt
9 htrtttttttttt
0 t.rtt..tttttt
1 tttttrrr.tttt
2 tttrrrrrrtttt
3 tt.r.rrrrr..t

Turn = 7.
  0123456789012
0 tr.r.hrrrrrrr
1 tttt.rrrrrrr.
2 tttt.rrtrrrrr
3 ttttrrrtrrr..
4 .tttrrrtrrtrr
5 tttttrr.rrt.r
6 ttt..rrrr.tr.
7 tttr..rrr.trr
8 tttt.rr.ttttt
9 ttrtttttttttt
0 t.rtt..tttttt
1 tttttrrt.tttt
2 tttrrrrrrtttt
3 ttr..rrrrr..t

*** Darwin 5x12 ***
Turn = 0.
  012345678901
0 tthr.fffhhr.
1 .rffft..htrf
2 r.thh.ftht.h
3 frfrrfftfttf
4 trfhtftrhhff

Turn = 2.
  012345678901
0 ttrr.tffht.r
1 .ttrrt..ht.f
2 .rrrr.tttrrh
3 frrrttttttrf
4 trrhtftrrrrf
